<?xml version="1.0" encoding="utf-8"?>
<!-- Generator: Adobe Illustrator 20.0.0, SVG Export Plug-In . SVG Version: 6.00 Build 0)  -->
<svg version="1.1" id="Capa_1" xmlns="http://www.w3.org/2000/svg" xmlns:xlink="http://www.w3.org/1999/xlink" x="0px" y="0px"
	 viewBox="0 0 612.1 612.1" style="enable-background:new 0 0 612.1 612.1;" xml:space="preserve">
<style type="text/css">
	.st0{fill:#3D84C5;}
	.st1{fill:#FFFFFF;}
</style>
<g>
	<path class="st0" d="M465.7,257.3c-4.6-13.9-18.6-23.2-32.4-23.2H178.1c-16.3,0-27.9,9.3-32.5,23.2L96.9,396.5V582
		c0,13.9,9.3,23.2,23.2,23.2h23.2c13.8,0,23.1-9.3,23.1-23.2v-23.2h278.4V582c0,13.9,9.3,23.2,23.2,23.2h23.2
		c13.8,0,23.1-9.3,23.1-23.2V396.5L465.7,257.3z M178.1,489.2c-18.6,0-34.8-16.3-34.8-34.8c0-18.6,16.2-34.9,34.8-34.9
		c18.6,0,34.8,16.3,34.8,34.9C212.9,472.9,196.7,489.2,178.1,489.2L178.1,489.2z M433.3,489.2c-18.6,0-34.9-16.3-34.9-34.8
		c0-18.6,16.3-34.9,34.9-34.9c18.4,0,34.8,16.3,34.8,34.9C468.1,472.9,451.7,489.2,433.3,489.2L433.3,489.2z M143.4,373.2
		l34.8-104.4h255.2l34.8,104.4H143.4z M143.4,373.2"/>
</g>
<g>
	<path class="st0" d="M305.4,349.7c-4,0-7.7-1.5-10.5-4.4L160.1,210c-4.2-4.2-5.5-10.6-3.2-16.1c2.3-5.6,7.7-9.2,13.7-9.2h66.3V23.8
		c0-8.2,6.7-14.8,14.8-14.8h108.2c8.2,0,14.8,6.7,14.8,14.8v160.9h66c6,0,11.4,3.6,13.7,9.1c2.3,5.6,1.1,11.9-3.2,16.2L315.9,345.3
		C313.1,348.1,309.4,349.7,305.4,349.7z"/>
	<path class="st1" d="M359.9,17c3.7,0,6.8,3,6.8,6.8v169h74.1c2.7,0,5.2,1.6,6.2,4.2c1.1,2.5,0.5,5.4-1.5,7.4L310.2,339.6
		c-1.3,1.3-3,2-4.8,2c-1.8,0-3.5-0.7-4.8-2L165.8,204.3c-1.9-1.9-2.5-4.8-1.5-7.4c1.1-2.5,3.5-4.2,6.2-4.2h74.4v-169
		c0-3.7,3-6.8,6.8-6.8H359.9 M359.9,0.9H251.7c-12.6,0-22.9,10.3-22.9,22.9v152.8h-58.2c-9.3,0-17.6,5.5-21.1,14.1l0,0l0,0
		c-3.5,8.6-1.6,18.4,5,24.9L289.2,351c4.4,4.4,10.1,6.7,16.2,6.7c6.1,0,11.8-2.4,16.1-6.6l0,0l0,0l135.3-135.3
		c6.6-6.6,8.5-16.4,4.9-25c-3.6-8.6-11.9-14.1-21.2-14.1h-57.9V23.8C382.8,11.1,372.5,0.9,359.9,0.9L359.9,0.9z"/>
</g>
</svg>
